<?xml version="1.0"?>
<robot name="rlbot" xmlns:xacro="http://ros.org/wiki/xacro">

  <!-- import all gazebo-customization elements, including gazebo colors -->
  <xacro:include filename="$(find rlbot_description)/pioneer_robot/pioneer3dx.gazebo" />
  <!-- import the pioneer 3dx's wheels -->
  <xacro:include filename="$(find rlbot_description)/pioneer_robot/pioneer3dx_wheel.xacro" />

  <!-- chassis -->
  <link name="base_link">
    <inertial>
      <mass value="3.5" />
      <!--<origin xyz="-0.025 0 -0.223"/> -->
      <origin xyz="-0.05 0 0" />
      <inertia ixx="1" ixy="0" ixz="0" iyy="1" iyz="0" izz="1" />
    </inertial>

    <visual name="base_visual">
      <origin xyz="-0.045 0 0.148" rpy="0 0 0" />
      <geometry name="pioneer_geom">
        <mesh filename="package://rlbot_description/pioneer_meshes/chassis.stl" />
      </geometry>
      <material name="ChassisRed">
        <color rgba="0.851 0.0 0.0 1.0" />
      </material>
    </visual>

    <collision>
      <origin xyz="-0.045 0 0.145" rpy="0 0 0" />
      <geometry>
        <box size="0.35 0.25 0.14" />
      </geometry>
    </collision>
  </link>

  <!-- top_plate -->
  <link name="top_plate">
    <inertial>
      <mass value="0.01" />
      <origin xyz="0 0 0" />
      <inertia ixx="1" ixy="0" ixz="0" iyy="1" iyz="0" izz="1" />
    </inertial>

    <visual name="base_visual">
      <origin xyz="0 0 0" rpy="0 0 0" />
      <geometry name="top_geom">
        <mesh filename="package://rlbot_description/pioneer_meshes/top.stl" />
      </geometry>

      <material name="TopBlack">
        <color rgba="0.038 0.038 0.038 1.0" />
      </material>
    </visual>

    <collision>
      <origin xyz="0.0 0 0" rpy="0 0 0" />
      <geometry name="pioneer_geom">
        <box size="0.45 0.38 0.01" />
      </geometry>
    </collision>
  </link>

  <joint name="base_top_joint" type="fixed">
    <origin xyz="-0.045 0 0.234" rpy="0 0 0" />
    <parent link="base_link" />
    <child link="top_plate" />
  </joint>

  <!-- swivel -->
  <link name="swivel">
    <inertial>
      <mass value="0.1" />
      <origin xyz="0 0 0" />
      <inertia ixx="0.01" ixy="0" ixz="0" iyy="0.01" iyz="0" izz="0.01" />
    </inertial>

    <visual name="base_visual">
      <origin xyz="0 0 0" rpy="0 0 0" />
      <geometry name="pioneer_geom">
        <mesh filename="package://rlbot_description/pioneer_meshes/swivel.stl" />
      </geometry>
      <material name="swivel">
        <color rgba="0.5 0.5 0.5 1" />
      </material>
    </visual>

    <collision>
      <origin xyz="0 0 0" rpy="0 0 0" />
      <geometry>
        <box size="0 0 0" />
      </geometry>
    </collision>
  </link>

  <joint name="base_swivel_joint" type="continuous">
    <origin xyz="-0.185 0 0.055" rpy="0 0 0" />
    <axis xyz="0 0 1" />
    <anchor xyz="0 0 0" />
    <limit effort="100" velocity="100" k_velocity="0" />
    <joint_properties damping="0.0" friction="0.0" />
    <parent link="base_link" />
    <child link="swivel" />
  </joint>

  <!-- center_hubcap -->
  <link name="center_hubcap">
    <inertial>
      <mass value="0.01" />
      <origin xyz="0 0 0" />
      <inertia ixx="0.012411765597" ixy="-0.000711733678" ixz="0.00050272983"
        iyy="0.015218160428" iyz="-0.000004273467" izz="0.011763977943" />
    </inertial>

    <visual name="base_visual">
      <origin xyz="0 0 0" rpy="0 0 0" />
      <geometry name="pioneer_geom">
        <mesh filename="package://rlbot_description/pioneer_meshes/center_hubcap.stl" />
      </geometry>
      <material name="swivel">
        <color rgba="0.5 0.5 0.5 1" />
      </material>
    </visual>

    <collision>
      <origin xyz="0 0 0" rpy="0 0 0" />
      <geometry>
        <box size="0 0 0" />
      </geometry>
    </collision>
  </link>

  <joint name="swivel_hubcap_joint" type="continuous">
    <origin xyz="-0.026 0 -0.016" rpy="0 0 0" />
    <axis xyz="0 1 0" />
    <anchor xyz="0 0 0" />
    <limit effort="100" velocity="100" k_velocity="0" />
    <joint_properties damping="0.0" friction="0.0" />
    <parent link="swivel" />
    <child link="center_wheel" />
  </joint>

  <!-- center_wheel -->
  <link name="center_wheel">
    <inertial>
      <mass value="0.1" />
      <origin xyz="0 0 0" />
      <inertia ixx="0.012411765597" ixy="-0.000711733678" ixz="0.00050272983"
        iyy="0.015218160428" iyz="-0.000004273467" izz="0.011763977943" />
    </inertial>

    <visual name="base_visual">
      <origin xyz="0 0 0" rpy="0 0 0" />
      <geometry name="pioneer_geom">
        <mesh filename="package://rlbot_description/pioneer_meshes/center_wheel.stl" />
      </geometry>
      <material name="WheelBlack">
        <color rgba="0.117 0.117 0.117 1" />
      </material>
    </visual>

    <collision>
      <origin xyz="0 0 0" rpy="${-3.1415927/2.0} 0 0" />
      <geometry>
        <cylinder radius="0.0375" length="0.01" />
      </geometry>
    </collision>
  </link>

  <joint name="center_wheel_joint" type="fixed">
    <origin xyz="-0.0035 0 -0.001" rpy="0 0 0"/>
    <parent link="center_wheel"/>
    <child link="center_hubcap"/>
  </joint>

  <xacro:p3dx_wheel suffix="left" parent="base_link" reflect="1"/>
  <xacro:p3dx_wheel suffix="right" parent="base_link" reflect="-1"/>

  <!-- front_sonar -->
  <link name="front_sonar">
    <inertial>
      <mass value="0.0001" />
      <origin xyz="0 0 0" />
      <inertia ixx="1" ixy="0" ixz="0" iyy="1" iyz="0" izz="1" />
    </inertial>
    
    <visual name="front_sonar_vis">
      <origin rpy="0 0 0" xyz="0 0 0" />
      <geometry name="pioneer_geom">
        <mesh filename="package://rlbot_description/pioneer_meshes/front_sonar.stl" />
      </geometry>
      <material name="SonarYellow">
        <color rgba="0.715 0.583 0.210 1.0" />
      </material>
    </visual>
    
    <collision>
      <origin rpy="0 0 0" xyz="0 0 0" />
      <geometry>
        <box size="0 0 0" />
      </geometry>
    </collision>
  </link>
  
  <joint name="base_front_joint" type="fixed">
    <origin rpy="0 0 0" xyz="0.109 0 0.209" />
    <parent link="base_link" />
    <child link="front_sonar" />
  </joint>
  
  <!-- lms100 laser -->
  <link name="lms100">
    <inertial>
      <mass value="1e-5" />
      <origin xyz="0 0 0" rpy="0 0 0" />
      <inertia ixx="1e-6" ixy="0" ixz="0" iyy="1e-6" iyz="0" izz="1e-6" />
    </inertial>

    <visual>
      <origin xyz="0 0 0" rpy="0 0 0" />
      <geometry>
        <mesh filename="package://rlbot_description/pioneer_meshes/lms100.dae" />     
      </geometry>
    </visual>

    <collision>
      <origin xyz="0 0 0" rpy="0 0 0" />
      <geometry>
        <box size="0.1 0.1 0.1" />
      </geometry>
    </collision>
  </link>

  <joint name="lms100_joint" type="fixed">
    <axis xyz="0 1 0" />
    <origin xyz="0.16 0 0.15" rpy="0 0 0" />
    <parent link="base_link" />
    <child link="lms100" />
  </joint>
<!-- The arm starts here -->

 <link
    name="arm_base_link">
    <inertial>
      <origin
        xyz="0.0025008 -0.00040911 0.020867"
        rpy="0 0 0" />
      <mass
        value="0.59584" />
    <inertia
        ixx="0.0016223"
        ixy="-4.778E-05"
        ixz="-4.76E-06"
        iyy="0.0016219"
        iyz="1.7931E-05"
        izz="0.0027169" />
    </inertial>
    <visual>
      <origin
        xyz="0 0 0"
        rpy="0 0 0" />
      <geometry>
        <mesh
          filename="package://rlbot_description/cool1000_meshes/arm_base_link.STL" />
      </geometry>
      <material
        name="">
        <color
          rgba="0.09803 0.09803 0.09803 1" />
      </material>
    </visual>
    <collision>
      <origin
        xyz="0 0 0"
        rpy="0 0 0" />
      <geometry>
        <mesh
          filename="package://rlbot_description/cool1000_meshes/arm_base_link.STL" />
      </geometry>
    </collision>
  </link>

   	<joint 
 		name="connector" 
 		type="revolute">
		<origin xyz="-0.05 0 0.01" rpy="0 0 0" />
      <limit
      lower="0"
      upper="0"
      effort="1"
      velocity="0" />
		<parent link="top_plate" />
		<child link="arm_base_link" />
	</joint>


  <link
    name="link1">
    <inertial>
      <origin
        xyz="0.012509 2.7441E-05 0.049639"
        rpy="0 0 0" />
      <mass
        value="0.25526" />
      <inertia
        ixx="0.00023408"
        ixy="1.7779E-07"
        ixz="-2.7415E-05"
        iyy="0.00068215"
        iyz="-2.1813E-07"
        izz="0.0005853" />
    </inertial>
    <visual>
      <origin
        xyz="0 0 0"
        rpy="0 0 0" />
      <geometry>
        <mesh
          filename="package://rlbot_description/cool1000_meshes/link1.STL" />
      </geometry>
      <material
        name="">
        <color
          rgba="0.09803 0.09803 0.09803 1" />
      </material>
    </visual>
    <collision>
      <origin
        xyz="0 0 0"
        rpy="0 0 0" />
      <geometry>
        <mesh
          filename="package://rlbot_description/cool1000_meshes/link1.STL" />
      </geometry>
    </collision>
  </link>
  <joint
    name="joint1"
    type="revolute">
    <origin
      xyz="0 0 0.047002"
      rpy="0 0 -1.5708" />
    <parent
      link="arm_base_link" />
    <child
      link="link1" />
    <axis
      xyz="0 0 1" />
    <limit
      lower="-2.617"
      upper="2.617"
      effort="10"
      velocity="0.5" />
    <dynamics
      damping="1"
      friction="0" />
  </joint>
  <link
    name="link2">
    <inertial>
      <origin
        xyz="-0.012468 8.4775E-08 0.056546"
        rpy="0 0 0" />
      <mass
        value="0.15994" />
      <inertia
        ixx="0.0001033"
        ixy="-1.1899E-06"
        ixz="1.4336E-05"
        iyy="0.00017682"
        iyz="-3.0046E-10"
        izz="0.00012114" />
    </inertial>
    <visual>
      <origin
        xyz="0 0 0"
        rpy="0 0 0" />
      <geometry>
        <mesh
          filename="package://rlbot_description/cool1000_meshes/link2.STL" />
      </geometry>
      <material
        name="">
        <color
          rgba="0.09803 0.09803 0.09803 1" />
      </material>
    </visual>
    <collision>
      <origin
        xyz="0 0 0"
        rpy="0 0 0" />
      <geometry>
        <mesh
          filename="package://rlbot_description/cool1000_meshes/link2.STL" />
      </geometry>
    </collision>
  </link>
  <joint
    name="joint2"
    type="revolute">
    <origin
      xyz="0 0 0.080098"
      rpy="0.0014078 0 0" />
    <parent
      link="link1" />
    <child
      link="link2" />
    <axis
      xyz="-1 0 0" />
    <limit
      lower="-1.51"
      upper="1.51"
      effort="10"
      velocity="0.5" />
    <dynamics
      damping="1"
      friction="0" />
  </joint>
  <link
    name="link3">
    <inertial>
      <origin
        xyz="0.00033799 -3.3709E-13 0.05506"
        rpy="0 0 0" />
      <mass
        value="0.094737" />
      <inertia
        ixx="4.6661E-05"
        ixy="-8.3316E-18"
        ixz="-1.3753E-06"
        iyy="5.724E-05"
        iyz="-6.333E-17"
        izz="3.0064E-05" />
    </inertial>
    <visual>
      <origin
        xyz="0 0 0"
        rpy="0 0 0" />
      <geometry>
        <mesh
          filename="package://rlbot_description/cool1000_meshes/link3.STL" />
      </geometry>
      <material
        name="">
        <color
          rgba="0.09803 0.09803 0.09803 1" />
      </material>
    </visual>
    <collision>
      <origin
        xyz="0 0 0"
        rpy="0 0 0" />
      <geometry>
        <mesh
          filename="package://rlbot_description/cool1000_meshes/link3.STL" />
      </geometry>
    </collision>
  </link>
  <joint
    name="joint3"
    type="revolute">
    <origin
      xyz="-9.9688E-05 0 0.07258"
      rpy="-7.0451E-16 -1.4078E-09 -3.1416" />
    <parent
      link="link2" />
    <child
      link="link3" />
    <axis
      xyz="0 0 1" />
    <limit
      lower="-2.617"
      upper="2.617"
      effort="10"
      velocity="0.5" />
    <dynamics
      damping="1"
      friction="0" />
  </joint>
  <link
    name="link4">
    <inertial>
      <origin
        xyz="5.1726E-05 -0.00020169 0.049677"
        rpy="0 0 0" />
      <mass
        value="0.064903" />
      <inertia
        ixx="4.8255E-05"
        ixy="7.7645E-12"
        ixz="1.8579E-10"
        iyy="5.2526E-05"
        iyz="1.7525E-06"
        izz="2.2147E-05" />
    </inertial>
    <visual>
      <origin
        xyz="0 0 0"
        rpy="0 0 0" />
      <geometry>
        <mesh
          filename="package://rlbot_description/cool1000_meshes/link4.STL" />
      </geometry>
      <material
        name="">
        <color
          rgba="0.09803 0.09803 0.09803 1" />
      </material>
    </visual>
    <collision>
      <origin
        xyz="0 0 0"
        rpy="0 0 0" />
      <geometry>
        <mesh
          filename="package://rlbot_description/cool1000_meshes/link4.STL" />
      </geometry>
    </collision>
  </link>
  <joint
    name="joint4"
    type="revolute">
    <origin
      xyz="0 0 0.0756"
      rpy="0.00047251 1.8256E-18 1.4533E-16" />
    <parent
      link="link3" />
    <child
      link="link4" />
    <axis
      xyz="1 0 0" />
    <limit
      lower="-1.91"
      upper="1.91"
      effort="10"
      velocity="0.5" />
    <dynamics
      damping="1"
      friction="0" />
  </joint>
  <link
    name="link5">
    <inertial>
      <origin
        xyz="-0.00048971 -0.00019645 0.058588"
        rpy="0 0 0" />
      <mass
        value="0.058288" />
      <inertia
        ixx="3.2343E-05"
        ixy="-2.1864E-09"
        ixz="-5.5709E-07"
        iyy="3.3707E-05"
        iyz="-8.298E-09"
        izz="1.3619E-05" />
    </inertial>
    <visual>
      <origin
        xyz="0 0 0"
        rpy="0 0 0" />
      <geometry>
        <mesh
          filename="package://rlbot_description/cool1000_meshes/link5.STL" />
      </geometry>
      <material
        name="">
        <color
          rgba="0.09803 0.09803 0.09803 1" />
      </material>
    </visual>
    <collision>
      <origin
        xyz="0 0 0"
        rpy="0 0 0" />
      <geometry>
        <mesh
          filename="package://rlbot_description/cool1000_meshes/link5.STL" />
      </geometry>
    </collision>
  </link>
  <joint
    name="joint5"
    type="revolute">
    <origin
      xyz="5.1836E-05 0 0.074004"
      rpy="0 -4.1277E-16 4.4131E-13" />
    <parent
      link="link4" />
    <child
      link="link5" />
    <axis
      xyz="0 1 0" />
    <limit
      lower="-1.91"
      upper="1.91"
      effort="10"
      velocity="0.5" />
    <dynamics
      damping="1"
      friction="0" />
  </joint>
  <link
    name="link6">
    <inertial>
      <origin
        xyz="-7.0358E-05 -7.9344E-05 0.026287"
        rpy="0 0 0" />
      <mass
        value="0.012172" />
      <inertia
        ixx="3.3095E-06"
        ixy="7.7004E-11"
        ixz="1.1212E-08"
        iyy="4.9286E-06"
        iyz="3.1423E-08"
        izz="4.4692E-06" />
    </inertial>
    <visual>
      <origin
        xyz="0 0 0"
        rpy="0 0 0" />
      <geometry>
        <mesh
          filename="package://rlbot_description/cool1000_meshes/link6.STL" />
      </geometry>
      <material
        name="">
        <color
          rgba="0.09803 0.09803 0.09803 1" />
      </material>
    </visual>
    <collision>
      <origin
        xyz="0 0 0"
        rpy="0 0 0" />
      <geometry>
        <mesh
          filename="package://rlbot_description/cool1000_meshes/link6.STL" />
      </geometry>
    </collision>
  </link>
  <joint
    name="joint6"
    type="revolute">
    <origin
      xyz="0 -0.00020696 0.078488"
      rpy="-3.7237E-10 -3.706E-25 -1.3874E-15" />
    <parent
      link="link5" />
    <child
      link="link6" />
    <axis
      xyz="-1 0 0" />
    <limit
      lower="-1.91"
      upper="1.91"
      effort="10"
      velocity="0.5" />
    <dynamics
      damping="1"
      friction="0" />
  </joint>
  <link
    name="wrist_roll_link">
    <inertial>
      <origin
        xyz="-0.010437 2.3015E-05 0.046336"
        rpy="0 0 0" />
      <mass
        value="0.10308" />
      <inertia
        ixx="6.9221E-05"
        ixy="6.0734E-09"
        ixz="4.8227E-06"
        iyy="8.6341E-05"
        iyz="1.8346E-08"
        izz="3.1578E-05" />
    </inertial>
    <visual>
      <origin
        xyz="0 0 0"
        rpy="0 0 0" />
      <geometry>
        <mesh
          filename="package://rlbot_description/cool1000_meshes/wrist_roll_link.STL" />
      </geometry>
      <material
        name="">
        <color
          rgba="0.098039 0.098039 0.098039 1" />
      </material>
    </visual>
    <collision>
      <origin
        xyz="0 0 0"
        rpy="0 0 0" />
      <geometry>
        <mesh
          filename="package://rlbot_description/cool1000_meshes/wrist_roll_link.STL" />
      </geometry>
    </collision>
  </link>
  <joint
    name="joint7"
    type="revolute">
    <origin
      xyz="-7.6239E-05 0 0.0335"
      rpy="-4.6762E-16 9.3533E-10 -1E-06" />
    <parent
      link="link6" />
    <child
      link="wrist_roll_link" />
    <axis
      xyz="0 0 1" />
    <limit
      lower="-2.617"
      upper="2.617"
      effort="10"
      velocity="0.5" />
    <dynamics
      damping="1"
      friction="0" />
  </joint>
  <link
    name="gripper_link1">
    <inertial>
      <origin
        xyz="0.06468 -0.70953 0.065169"
        rpy="0 0 0" />
      <mass
        value="0.0045031" />
      <inertia
        ixx="9.3388E-07"
        ixy="-5.3243E-08"
        ixz="-6.8251E-10"
        iyy="2.0857E-07"
        iyz="3.3957E-10"
        izz="7.8431E-07" />
    </inertial>
    <visual>
      <origin
        xyz="0 0 0"
        rpy="0 0 0" />
      <geometry>
        <mesh
          filename="package://rlbot_description/cool1000_meshes/gripper_link1.STL" />
      </geometry>
      <material
        name="">
        <color
          rgba="0.098039 0.098039 0.098039 1" />
      </material>
    </visual>
    <collision>
      <origin
        xyz="0 0 0"
        rpy="0 0 0" />
      <geometry>
        <mesh
          filename="package://rlbot_description/cool1000_meshes/gripper_link1.STL" />
      </geometry>
    </collision>
  </link>
  <joint
    name="l_gripper_finger_joint"
    type="prismatic">
    <origin
      xyz="0.068903 0.065852 -0.60235"
      rpy="-1.5717 -1.298E-18 3.1416" />
    <parent
      link="wrist_roll_link" />
    <child
      link="gripper_link1" />
    <axis
      xyz="-1 0 0" />
    <limit
      lower="-1"
      upper="0.6"
      effort="10"
      velocity="0.5" />
  </joint>
  <link
    name="gripper_link2">
    <inertial>
      <origin
        xyz="0.11301 -0.70953 0.065055"
        rpy="0 0 0" />
      <mass
        value="0.0045031" />
      <inertia
        ixx="9.3388E-07"
        ixy="5.484E-08"
        ixz="-5.7472E-10"
        iyy="2.0889E-07"
        iyz="7.3745E-10"
        izz="7.8463E-07" />
    </inertial>
    <visual>
      <origin
        xyz="0 0 0"
        rpy="0 0 0" />
      <geometry>
        <mesh
          filename="package://rlbot_description/cool1000_meshes/gripper_link2.STL" />
      </geometry>
      <material
        name="">
        <color
          rgba="0.098039 0.098039 0.098039 1" />
      </material>
    </visual>
    <collision>
      <origin
        xyz="0 0 0"
        rpy="0 0 0" />
      <geometry>
        <mesh
          filename="package://rlbot_description/cool1000_meshes/gripper_link2.STL" />
      </geometry>
    </collision>
  </link>
  <joint
    name="r_gripper_finger_joint"
    type="prismatic">
    <origin
      xyz="0.109 0.065852 -0.60235"
      rpy="-1.5717 -1.298E-18 3.1416" />
    <parent
      link="wrist_roll_link" />
    <child
      link="gripper_link2" />
    <axis
      xyz="1 0 0" />
    <limit
      lower="-1"
      upper="0.6"
      effort="10"
      velocity="0.5" />
    <dynamics
      damping="1"
      friction="0" />
  </joint>

  <!-- My snippet starts here -->
  <gazebo reference="arm_base_link">
    <material>Gazebo/White</material>
  </gazebo>

  <gazebo reference="link1">
    <material>Gazebo/Black</material>
  </gazebo>
    <gazebo reference="link2">
    <material>Gazebo/Black</material>
  </gazebo>
  <gazebo reference="link3">
    <material>Gazebo/Black</material>
  </gazebo>
  <gazebo reference="link4">
    <material>Gazebo/Black</material>
  </gazebo>
  <gazebo reference="link5">
    <material>Gazebo/Black</material>
  </gazebo>
  <gazebo reference="link6">
    <material>Gazebo/Black</material>
  </gazebo>
  <gazebo reference="wrist_roll_link">
    <material>Gazebo/Black</material>
  </gazebo>

  <gazebo reference="gripper_link1">
    <material>Gazebo/White</material>
  </gazebo>
  <gazebo reference="gripper_link2">
    <material>Gazebo/White</material>
  </gazebo>

     <!-- ros_control plugin -->
  <gazebo>
    <plugin name="gazebo_ros_control" filename="libgazebo_ros_control.so">
      <robotNamespace>/cool1000_description</robotNamespace>
    </plugin>
  </gazebo>


  <xacro:macro name="transmission_block" params="joint_name">
  <transmission name="tran1">
  <type>transmission_interface/SimpleTransmission</type>  
  <joint name="${joint_name}">
  <hardwareInterface>PositionJointInterface</hardwareInterface>
  </joint>
  <actuator name="motor1">
  <mechanicalReduction>1</mechanicalReduction>
  </actuator>
  </transmission>
  </xacro:macro>
  <xacro:transmission_block joint_name="joint1"/>
  <xacro:transmission_block joint_name="joint2"/>
  <xacro:transmission_block joint_name="joint3"/>
  <xacro:transmission_block joint_name="joint4"/>
  <xacro:transmission_block joint_name="joint5"/>
  <xacro:transmission_block joint_name="joint6"/>
  <xacro:transmission_block joint_name="joint7"/>
  <xacro:transmission_block joint_name="l_gripper_finger_joint"/>
  <xacro:transmission_block joint_name="r_gripper_finger_joint"/>


 <!-- Head Camera -->
<link name="head_camera_link" />
  <joint name="head_camera_joint" type="fixed">
    <origin rpy="0 0 0" xyz="0 0 0.5" />
    <parent link="base_link" />
    <child link="head_camera_link" />
  </joint>
  <link name="head_camera_rgb_frame" />
  <joint name="head_camera_rgb_joint" type="fixed">
    <origin rpy="0 0 0" xyz="0 0.02 0" />
    <parent link="head_camera_link" />
    <child link="head_camera_rgb_frame" />
  </joint>
  <link name="head_camera_rgb_optical_frame" />
  <joint name="head_camera_rgb_optical_joint" type="fixed">
    <origin rpy="-1.57079632679 0 -1.57079632679" xyz="0 0 0" />
    <parent link="head_camera_rgb_frame" />
    <child link="head_camera_rgb_optical_frame" />
  </joint>
  <link name="head_camera_depth_frame" />
  <joint name="head_camera_depth_joint" type="fixed">
    <origin rpy="0 0 0" xyz="0 0.045 0" />
    <parent link="head_camera_link" />
    <child link="head_camera_depth_frame" />
  </joint>
  <link name="head_camera_depth_optical_frame" />
  <joint name="head_camera_depth_optical_joint" type="fixed">
    <origin rpy="-1.57079632679 0 -1.57079632679" xyz="0 0 0" />
    <parent link="head_camera_depth_frame" />
    <child link="head_camera_depth_optical_frame" />
 </joint>



	  <!-- Load the plugin -->
  <gazebo>
    <plugin name="rlbot_gazebo_plugin" filename="librlbot_gazebo_plugin.so"/>
  </gazebo> 

  <gazebo>
    <plugin name="gazebo_ros_control" filename="libgazebo_ros_control.so">
      <robotNamespace>/rlbot</robotNamespace>
      <robotSimType>gazebo_ros_control/DefaultRobotHWSim</robotSimType>
    </plugin>
  </gazebo>



</robot>


